%YAML 1.1
%TAG !u! tag:unity3d.com,2011:
--- !u!21 &2100000
Material:
  serializedVersion: 3
  m_ObjectHideFlags: 0
  m_PrefabParentObject: {fileID: 0}
  m_PrefabInternal: {fileID: 0}
  m_Name: Toony_01_Material 2
  m_Shader: {fileID: 31, guid: 0000000000000000f000000000000000, type: 0}
  m_ShaderKeywords: []
  m_CustomRenderQueue: -1
  m_SavedProperties:
    serializedVersion: 2
    m_TexEnvs:
      data:
        first:
          name: _MainTex
        second:
          m_Texture: {fileID: 2800000, guid: fa2667b377594463fbb6e02f9bb0b844, type: 3}
          m_Scale: {x: 1, y: 10}
          m_Offset: {x: 0, y: 0}
      data:
        first:
          name: _BumpMap
        second:
          m_Texture: {fileID: 0}
          m_Scale: {x: 1, y: 1}
          m_Offset: {x: 0, y: 0}
      data:
        first:
          name: _HeightMap1
        second:
          m_Texture: {fileID: 2800000, guid: ce2701e6f31c246328f6bea5bbbd7d78, type: 3}
          m_Scale: {x: 1, y: 1}
          m_Offset: {x: 0, y: 0}
      data:
        first:
          name: _HeightMap2
        second:
          m_Texture: {fileID: 0}
          m_Scale: {x: 1, y: 1}
          m_Offset: {x: 0, y: 0}
    m_Floats:
      data:
        first:
          name: _MainTexMoveSpeedU
        second: -.214285731
      data:
        first:
          name: _MainTexMoveSpeedV
        second: -.571428478
      data:
        first:
          name: _MainTexTile
        second: 4
      data:
        first:
          name: _HeightMapTile
        second: 1
      data:
        first:
          name: _MainTexRefraction
        second: 1.23749995
      data:
        first:
          name: _HeightMapStrength
        second: 1.60714281
      data:
        first:
          name: _HeightMapMultiply
        second: .11428573
      data:
        first:
          name: _MainTexMultiply
        second: 1.51785719
    m_Colors:
      data:
        first:
          name: _Color
        second: {r: 1, g: 1, b: 1, a: .31764707}
      data:
        first:
          name: _MainTexColor
        second: {r: 1, g: 1, b: 1, a: .588235319}
