%YAML 1.1
%TAG !u! tag:unity3d.com,2011:
--- !u!1 &184230
GameObject:
  m_ObjectHideFlags: 1
  m_PrefabParentObject: {fileID: 0}
  m_PrefabInternal: {fileID: 100100000}
  serializedVersion: 4
  m_Component:
  - 4: {fileID: 484230}
  m_Layer: 0
  m_Name: Right_ToeJoint01
  m_TagString: Untagged
  m_Icon: {fileID: 0}
  m_NavMeshLayer: 0
  m_StaticEditorFlags: 0
  m_IsActive: 1
--- !u!1 &184232
GameObject:
  m_ObjectHideFlags: 1
  m_PrefabParentObject: {fileID: 0}
  m_PrefabInternal: {fileID: 100100000}
  serializedVersion: 4
  m_Component:
  - 4: {fileID: 484232}
  m_Layer: 0
  m_Name: Right_AnkleJoint01
  m_TagString: Untagged
  m_Icon: {fileID: 0}
  m_NavMeshLayer: 0
  m_StaticEditorFlags: 0
  m_IsActive: 1
--- !u!1 &184234
GameObject:
  m_ObjectHideFlags: 1
  m_PrefabParentObject: {fileID: 0}
  m_PrefabInternal: {fileID: 100100000}
  serializedVersion: 4
  m_Component:
  - 4: {fileID: 484234}
  m_Layer: 0
  m_Name: Right_KneeJoint01
  m_TagString: Untagged
  m_Icon: {fileID: 0}
  m_NavMeshLayer: 0
  m_StaticEditorFlags: 0
  m_IsActive: 1
--- !u!1 &184236
GameObject:
  m_ObjectHideFlags: 1
  m_PrefabParentObject: {fileID: 0}
  m_PrefabInternal: {fileID: 100100000}
  serializedVersion: 4
  m_Component:
  - 4: {fileID: 484242}
  m_Layer: 0
  m_Name: Right_ThighJoint01
  m_TagString: Untagged
  m_Icon: {fileID: 0}
  m_NavMeshLayer: 0
  m_StaticEditorFlags: 0
  m_IsActive: 1
--- !u!1 &184238
GameObject:
  m_ObjectHideFlags: 1
  m_PrefabParentObject: {fileID: 0}
  m_PrefabInternal: {fileID: 100100000}
  serializedVersion: 4
  m_Component:
  - 4: {fileID: 484236}
  m_Layer: 0
  m_Name: Left_ToeJoint01
  m_TagString: Untagged
  m_Icon: {fileID: 0}
  m_NavMeshLayer: 0
  m_StaticEditorFlags: 0
  m_IsActive: 1
--- !u!1 &184240
GameObject:
  m_ObjectHideFlags: 1
  m_PrefabParentObject: {fileID: 0}
  m_PrefabInternal: {fileID: 100100000}
  serializedVersion: 4
  m_Component:
  - 4: {fileID: 484238}
  m_Layer: 0
  m_Name: Left_AnkleJoint01
  m_TagString: Untagged
  m_Icon: {fileID: 0}
  m_NavMeshLayer: 0
  m_StaticEditorFlags: 0
  m_IsActive: 1
--- !u!1 &184242
GameObject:
  m_ObjectHideFlags: 1
  m_PrefabParentObject: {fileID: 0}
  m_PrefabInternal: {fileID: 100100000}
  serializedVersion: 4
  m_Component:
  - 4: {fileID: 484240}
  m_Layer: 0
  m_Name: Left_KneeJoint01
  m_TagString: Untagged
  m_Icon: {fileID: 0}
  m_NavMeshLayer: 0
  m_StaticEditorFlags: 0
  m_IsActive: 1
--- !u!1 &184244
GameObject:
  m_ObjectHideFlags: 1
  m_PrefabParentObject: {fileID: 0}
  m_PrefabInternal: {fileID: 100100000}
  serializedVersion: 4
  m_Component:
  - 4: {fileID: 484244}
  m_Layer: 0
  m_Name: Left_ThighJoint01
  m_TagString: Untagged
  m_Icon: {fileID: 0}
  m_NavMeshLayer: 0
  m_StaticEditorFlags: 0
  m_IsActive: 1
--- !u!1 &184246
GameObject:
  m_ObjectHideFlags: 1
  m_PrefabParentObject: {fileID: 0}
  m_PrefabInternal: {fileID: 100100000}
  serializedVersion: 4
  m_Component:
  - 4: {fileID: 484264}
  m_Layer: 0
  m_Name: HipJoint01
  m_TagString: Untagged
  m_Icon: {fileID: 0}
  m_NavMeshLayer: 0
  m_StaticEditorFlags: 0
  m_IsActive: 1
--- !u!1 &184248
GameObject:
  m_ObjectHideFlags: 1
  m_PrefabParentObject: {fileID: 0}
  m_PrefabInternal: {fileID: 100100000}
  serializedVersion: 4
  m_Component:
  - 4: {fileID: 484246}
  m_Layer: 0
  m_Name: Right_WristJoint01
  m_TagString: Untagged
  m_Icon: {fileID: 0}
  m_NavMeshLayer: 0
  m_StaticEditorFlags: 0
  m_IsActive: 1
--- !u!1 &184250
GameObject:
  m_ObjectHideFlags: 1
  m_PrefabParentObject: {fileID: 0}
  m_PrefabInternal: {fileID: 100100000}
  serializedVersion: 4
  m_Component:
  - 4: {fileID: 484248}
  m_Layer: 0
  m_Name: Right_ElbowJoint01
  m_TagString: Untagged
  m_Icon: {fileID: 0}
  m_NavMeshLayer: 0
  m_StaticEditorFlags: 0
  m_IsActive: 1
--- !u!1 &184252
GameObject:
  m_ObjectHideFlags: 1
  m_PrefabParentObject: {fileID: 0}
  m_PrefabInternal: {fileID: 100100000}
  serializedVersion: 4
  m_Component:
  - 4: {fileID: 484250}
  m_Layer: 0
  m_Name: Right_ArmJoint01
  m_TagString: Untagged
  m_Icon: {fileID: 0}
  m_NavMeshLayer: 0
  m_StaticEditorFlags: 0
  m_IsActive: 1
--- !u!1 &184254
GameObject:
  m_ObjectHideFlags: 1
  m_PrefabParentObject: {fileID: 0}
  m_PrefabInternal: {fileID: 100100000}
  serializedVersion: 4
  m_Component:
  - 4: {fileID: 484258}
  m_Layer: 0
  m_Name: Right_ShoulderJoint01
  m_TagString: Untagged
  m_Icon: {fileID: 0}
  m_NavMeshLayer: 0
  m_StaticEditorFlags: 0
  m_IsActive: 1
--- !u!1 &184256
GameObject:
  m_ObjectHideFlags: 1
  m_PrefabParentObject: {fileID: 0}
  m_PrefabInternal: {fileID: 100100000}
  serializedVersion: 4
  m_Component:
  - 4: {fileID: 484252}
  m_Layer: 0
  m_Name: Left_WristJoint01
  m_TagString: Untagged
  m_Icon: {fileID: 0}
  m_NavMeshLayer: 0
  m_StaticEditorFlags: 0
  m_IsActive: 1
--- !u!1 &184258
GameObject:
  m_ObjectHideFlags: 1
  m_PrefabParentObject: {fileID: 0}
  m_PrefabInternal: {fileID: 100100000}
  serializedVersion: 4
  m_Component:
  - 4: {fileID: 484254}
  m_Layer: 0
  m_Name: Left_ElbowJoint01
  m_TagString: Untagged
  m_Icon: {fileID: 0}
  m_NavMeshLayer: 0
  m_StaticEditorFlags: 0
  m_IsActive: 1
--- !u!1 &184260
GameObject:
  m_ObjectHideFlags: 1
  m_PrefabParentObject: {fileID: 0}
  m_PrefabInternal: {fileID: 100100000}
  serializedVersion: 4
  m_Component:
  - 4: {fileID: 484256}
  m_Layer: 0
  m_Name: Left_ArmJoint01
  m_TagString: Untagged
  m_Icon: {fileID: 0}
  m_NavMeshLayer: 0
  m_StaticEditorFlags: 0
  m_IsActive: 1
--- !u!1 &184262
GameObject:
  m_ObjectHideFlags: 1
  m_PrefabParentObject: {fileID: 0}
  m_PrefabInternal: {fileID: 100100000}
  serializedVersion: 4
  m_Component:
  - 4: {fileID: 484260}
  m_Layer: 0
  m_Name: Left_ShoulderJoint01
  m_TagString: Untagged
  m_Icon: {fileID: 0}
  m_NavMeshLayer: 0
  m_StaticEditorFlags: 0
  m_IsActive: 1
--- !u!1 &184264
GameObject:
  m_ObjectHideFlags: 1
  m_PrefabParentObject: {fileID: 0}
  m_PrefabInternal: {fileID: 100100000}
  serializedVersion: 4
  m_Component:
  - 4: {fileID: 484262}
  m_Layer: 0
  m_Name: HeadJoint01
  m_TagString: Untagged
  m_Icon: {fileID: 0}
  m_NavMeshLayer: 0
  m_StaticEditorFlags: 0
  m_IsActive: 1
--- !u!1 &184266
GameObject:
  m_ObjectHideFlags: 1
  m_PrefabParentObject: {fileID: 0}
  m_PrefabInternal: {fileID: 100100000}
  serializedVersion: 4
  m_Component:
  - 4: {fileID: 484266}
  m_Layer: 0
  m_Name: ChestJoint01
  m_TagString: Untagged
  m_Icon: {fileID: 0}
  m_NavMeshLayer: 0
  m_StaticEditorFlags: 0
  m_IsActive: 1
--- !u!1 &184268
GameObject:
  m_ObjectHideFlags: 0
  m_PrefabParentObject: {fileID: 0}
  m_PrefabInternal: {fileID: 100100000}
  serializedVersion: 4
  m_Component:
  - 4: {fileID: 484268}
  - 137: {fileID: 13784230}
  m_Layer: 0
  m_Name: Teddy_Bear
  m_TagString: Untagged
  m_Icon: {fileID: 0}
  m_NavMeshLayer: 0
  m_StaticEditorFlags: 0
  m_IsActive: 1
--- !u!1 &184270
GameObject:
  m_ObjectHideFlags: 0
  m_PrefabParentObject: {fileID: 0}
  m_PrefabInternal: {fileID: 100100000}
  serializedVersion: 4
  m_Component:
  - 4: {fileID: 484270}
  m_Layer: 0
  m_Name: RootJoint01
  m_TagString: Untagged
  m_Icon: {fileID: 0}
  m_NavMeshLayer: 0
  m_StaticEditorFlags: 0
  m_IsActive: 1
--- !u!1 &184272
GameObject:
  m_ObjectHideFlags: 0
  m_PrefabParentObject: {fileID: 0}
  m_PrefabInternal: {fileID: 100100000}
  serializedVersion: 4
  m_Component:
  - 4: {fileID: 484272}
  - 102: {fileID: 10284230}
  - 23: {fileID: 2384230}
  m_Layer: 0
  m_Name: TextMesh
  m_TagString: Untagged
  m_Icon: {fileID: 0}
  m_NavMeshLayer: 0
  m_StaticEditorFlags: 0
  m_IsActive: 1
--- !u!1 &184274
GameObject:
  m_ObjectHideFlags: 0
  m_PrefabParentObject: {fileID: 0}
  m_PrefabInternal: {fileID: 100100000}
  serializedVersion: 4
  m_Component:
  - 4: {fileID: 484274}
  - 95: {fileID: 9584230}
  - 114: {fileID: 11484232}
  - 195: {fileID: 19584230}
  - 114: {fileID: 11484230}
  m_Layer: 0
  m_Name: ArcherTeddy
  m_TagString: Human
  m_Icon: {fileID: 0}
  m_NavMeshLayer: 0
  m_StaticEditorFlags: 0
  m_IsActive: 1
--- !u!4 &484230
Transform:
  m_ObjectHideFlags: 1
  m_PrefabParentObject: {fileID: 0}
  m_PrefabInternal: {fileID: 100100000}
  m_GameObject: {fileID: 184230}
  m_LocalRotation: {x: -4.35319851e-16, y: 1.88269166e-16, z: -.0494023338, w: .998778999}
  m_LocalPosition: {x: .0583888553, y: -.0036440012, z: -3.5527136e-17}
  m_LocalScale: {x: 1, y: 1, z: 1}
  m_Children: []
  m_Father: {fileID: 484232}
  m_RootOrder: 0
--- !u!4 &484232
Transform:
  m_ObjectHideFlags: 1
  m_PrefabParentObject: {fileID: 0}
  m_PrefabInternal: {fileID: 100100000}
  m_GameObject: {fileID: 184232}
  m_LocalRotation: {x: -.0243927483, y: .036161378, z: -.558685899, w: .828231573}
  m_LocalPosition: {x: .162758321, y: -.00246069254, z: -.000363707484}
  m_LocalScale: {x: 1, y: 1, z: 1}
  m_Children:
  - {fileID: 484230}
  m_Father: {fileID: 484234}
  m_RootOrder: 0
--- !u!4 &484234
Transform:
  m_ObjectHideFlags: 1
  m_PrefabParentObject: {fileID: 0}
  m_PrefabInternal: {fileID: 100100000}
  m_GameObject: {fileID: 184234}
  m_LocalRotation: {x: .0112400856, y: -.0421463139, z: .257440269, w: .965309203}
  m_LocalPosition: {x: .199098885, y: -4.83463083e-08, z: -7.63833401e-16}
  m_LocalScale: {x: 1, y: 1, z: 1}
  m_Children:
  - {fileID: 484232}
  m_Father: {fileID: 484242}
  m_RootOrder: 0
--- !u!4 &484236
Transform:
  m_ObjectHideFlags: 1
  m_PrefabParentObject: {fileID: 0}
  m_PrefabInternal: {fileID: 100100000}
  m_GameObject: {fileID: 184238}
  m_LocalRotation: {x: 0, y: 0, z: -1.0269563e-15, w: 1}
  m_LocalPosition: {x: -.043673642, y: .0389245301, z: 1.09371508e-17}
  m_LocalScale: {x: 1, y: 1, z: 1}
  m_Children: []
  m_Father: {fileID: 484238}
  m_RootOrder: 0
--- !u!4 &484238
Transform:
  m_ObjectHideFlags: 1
  m_PrefabParentObject: {fileID: 0}
  m_PrefabInternal: {fileID: 100100000}
  m_GameObject: {fileID: 184240}
  m_LocalRotation: {x: 0, y: -0, z: -0, w: 1}
  m_LocalPosition: {x: -.1418598, y: -.0786216483, z: -.0138225555}
  m_LocalScale: {x: 1, y: 1, z: 1}
  m_Children:
  - {fileID: 484236}
  m_Father: {fileID: 484240}
  m_RootOrder: 0
--- !u!4 &484240
Transform:
  m_ObjectHideFlags: 1
  m_PrefabParentObject: {fileID: 0}
  m_PrefabInternal: {fileID: 100100000}
  m_GameObject: {fileID: 184242}
  m_LocalRotation: {x: -2.18575158e-16, y: 1.87350135e-16, z: 4.99600361e-16, w: 1}
  m_LocalPosition: {x: -.199099094, y: -4.44089183e-17, z: 1.06581408e-16}
  m_LocalScale: {x: 1, y: 1, z: 1}
  m_Children:
  - {fileID: 484238}
  m_Father: {fileID: 484244}
  m_RootOrder: 0
--- !u!4 &484242
Transform:
  m_ObjectHideFlags: 1
  m_PrefabParentObject: {fileID: 0}
  m_PrefabInternal: {fileID: 100100000}
  m_GameObject: {fileID: 184236}
  m_LocalRotation: {x: .733328402, y: -.679874599, z: -5.0654605e-09, w: 5.46372281e-09}
  m_LocalPosition: {x: .00269496161, y: -.0479027815, z: -.154492989}
  m_LocalScale: {x: 1, y: 1, z: 1}
  m_Children:
  - {fileID: 484234}
  m_Father: {fileID: 484264}
  m_RootOrder: 1
--- !u!4 &484244
Transform:
  m_ObjectHideFlags: 1
  m_PrefabParentObject: {fileID: 0}
  m_PrefabInternal: {fileID: 100100000}
  m_GameObject: {fileID: 184244}
  m_LocalRotation: {x: .679874599, y: .733328402, z: -5.17316214e-16, w: 6.48053367e-16}
  m_LocalPosition: {x: .00269496604, y: -.0479023047, z: .154492974}
  m_LocalScale: {x: 1, y: 1, z: 1}
  m_Children:
  - {fileID: 484240}
  m_Father: {fileID: 484264}
  m_RootOrder: 0
--- !u!4 &484246
Transform:
  m_ObjectHideFlags: 1
  m_PrefabParentObject: {fileID: 0}
  m_PrefabInternal: {fileID: 100100000}
  m_GameObject: {fileID: 184248}
  m_LocalRotation: {x: -.703499734, y: -.0530075394, z: .0540889651, w: .706648946}
  m_LocalPosition: {x: .104729012, y: .000652066141, z: -.0037415023}
  m_LocalScale: {x: 1, y: 1, z: 1}
  m_Children: []
  m_Father: {fileID: 484248}
  m_RootOrder: 0
--- !u!4 &484248
Transform:
  m_ObjectHideFlags: 1
  m_PrefabParentObject: {fileID: 0}
  m_PrefabInternal: {fileID: 100100000}
  m_GameObject: {fileID: 184250}
  m_LocalRotation: {x: .729459763, y: .127105668, z: -.129434943, w: .659529626}
  m_LocalPosition: {x: .148373201, y: -.00401186943, z: .00888591912}
  m_LocalScale: {x: 1, y: 1, z: 1}
  m_Children:
  - {fileID: 484246}
  m_Father: {fileID: 484250}
  m_RootOrder: 0
--- !u!4 &484250
Transform:
  m_ObjectHideFlags: 1
  m_PrefabParentObject: {fileID: 0}
  m_PrefabInternal: {fileID: 100100000}
  m_GameObject: {fileID: 184252}
  m_LocalRotation: {x: -.0432409011, y: -.0620791912, z: .141444117, w: .987051129}
  m_LocalPosition: {x: .0712197348, y: -.00206002197, z: -1.7763568e-17}
  m_LocalScale: {x: 1, y: 1, z: 1}
  m_Children:
  - {fileID: 484248}
  m_Father: {fileID: 484258}
  m_RootOrder: 0
--- !u!4 &484252
Transform:
  m_ObjectHideFlags: 1
  m_PrefabParentObject: {fileID: 0}
  m_PrefabInternal: {fileID: 100100000}
  m_GameObject: {fileID: 184256}
  m_LocalRotation: {x: -.0199151784, y: -.0974918455, z: -.199148923, w: .974904358}
  m_LocalPosition: {x: -.10451553, y: -.00316696195, z: .00700584752}
  m_LocalScale: {x: 1, y: 1, z: 1}
  m_Children: []
  m_Father: {fileID: 484254}
  m_RootOrder: 0
--- !u!4 &484254
Transform:
  m_ObjectHideFlags: 1
  m_PrefabParentObject: {fileID: 0}
  m_PrefabInternal: {fileID: 100100000}
  m_GameObject: {fileID: 184258}
  m_LocalRotation: {x: .0576923229, y: .131685466, z: -.00981054548, w: .98956269}
  m_LocalPosition: {x: -.148061037, y: .00230291346, z: -.0135073122}
  m_LocalScale: {x: 1, y: 1, z: 1}
  m_Children:
  - {fileID: 484252}
  m_Father: {fileID: 484256}
  m_RootOrder: 0
--- !u!4 &484256
Transform:
  m_ObjectHideFlags: 1
  m_PrefabParentObject: {fileID: 0}
  m_PrefabInternal: {fileID: 100100000}
  m_GameObject: {fileID: 184260}
  m_LocalRotation: {x: -.00935571641, y: -.0435911901, z: .209636673, w: .976762414}
  m_LocalPosition: {x: -.0707898811, y: -.00807839446, z: 0}
  m_LocalScale: {x: 1, y: 1, z: 1}
  m_Children:
  - {fileID: 484254}
  m_Father: {fileID: 484260}
  m_RootOrder: 0
--- !u!4 &484258
Transform:
  m_ObjectHideFlags: 1
  m_PrefabParentObject: {fileID: 0}
  m_PrefabInternal: {fileID: 100100000}
  m_GameObject: {fileID: 184254}
  m_LocalRotation: {x: .57720983, y: .408446878, z: -.513327301, w: .486307591}
  m_LocalPosition: {x: -.133234784, y: -.0100441296, z: -.113522992}
  m_LocalScale: {x: 1, y: 1, z: 1}
  m_Children:
  - {fileID: 484250}
  m_Father: {fileID: 484266}
  m_RootOrder: 2
--- !u!4 &484260
Transform:
  m_ObjectHideFlags: 1
  m_PrefabParentObject: {fileID: 0}
  m_PrefabInternal: {fileID: 100100000}
  m_GameObject: {fileID: 184262}
  m_LocalRotation: {x: -.448516041, y: .546656549, z: .448516041, w: .546656549}
  m_LocalPosition: {x: -.133234635, y: -.0100441547, z: .113522924}
  m_LocalScale: {x: 1, y: 1, z: 1}
  m_Children:
  - {fileID: 484256}
  m_Father: {fileID: 484266}
  m_RootOrder: 1
--- !u!4 &484262
Transform:
  m_ObjectHideFlags: 1
  m_PrefabParentObject: {fileID: 0}
  m_PrefabInternal: {fileID: 100100000}
  m_GameObject: {fileID: 184264}
  m_LocalRotation: {x: 0, y: 0, z: -6.66133815e-16, w: 1}
  m_LocalPosition: {x: -.189335138, y: 3.31590602e-17, z: 9.4671827e-17}
  m_LocalScale: {x: 1, y: 1, z: 1}
  m_Children: []
  m_Father: {fileID: 484266}
  m_RootOrder: 0
--- !u!4 &484264
Transform:
  m_ObjectHideFlags: 1
  m_PrefabParentObject: {fileID: 0}
  m_PrefabInternal: {fileID: 100100000}
  m_GameObject: {fileID: 184246}
  m_LocalRotation: {x: 0, y: 0, z: .679449618, w: .73372221}
  m_LocalPosition: {x: -.046820689, y: .00153061375, z: -1.0056416e-17}
  m_LocalScale: {x: 1, y: 1, z: 1}
  m_Children:
  - {fileID: 484244}
  - {fileID: 484242}
  m_Father: {fileID: 484270}
  m_RootOrder: 1
--- !u!4 &484266
Transform:
  m_ObjectHideFlags: 1
  m_PrefabParentObject: {fileID: 0}
  m_PrefabInternal: {fileID: 100100000}
  m_GameObject: {fileID: 184266}
  m_LocalRotation: {x: 0, y: 0, z: .059876956, w: .998205781}
  m_LocalPosition: {x: -.140643343, y: -7.00139071e-18, z: -3.12290956e-17}
  m_LocalScale: {x: 1, y: 1, z: 1}
  m_Children:
  - {fileID: 484262}
  - {fileID: 484260}
  - {fileID: 484258}
  m_Father: {fileID: 484270}
  m_RootOrder: 0
--- !u!4 &484268
Transform:
  m_ObjectHideFlags: 1
  m_PrefabParentObject: {fileID: 0}
  m_PrefabInternal: {fileID: 100100000}
  m_GameObject: {fileID: 184268}
  m_LocalRotation: {x: 0, y: -0, z: 0, w: 1}
  m_LocalPosition: {x: 0, y: 0, z: 0}
  m_LocalScale: {x: 1, y: 1, z: 1}
  m_Children: []
  m_Father: {fileID: 484274}
  m_RootOrder: 2
--- !u!4 &484270
Transform:
  m_ObjectHideFlags: 1
  m_PrefabParentObject: {fileID: 0}
  m_PrefabInternal: {fileID: 100100000}
  m_GameObject: {fileID: 184270}
  m_LocalRotation: {x: .480443418, y: -.518819928, z: -.480443418, w: .518819928}
  m_LocalPosition: {x: 0, y: .46096462, z: -.00249808421}
  m_LocalScale: {x: 1, y: .99999994, z: 1}
  m_Children:
  - {fileID: 484266}
  - {fileID: 484264}
  m_Father: {fileID: 484274}
  m_RootOrder: 1
--- !u!4 &484272
Transform:
  m_ObjectHideFlags: 1
  m_PrefabParentObject: {fileID: 0}
  m_PrefabInternal: {fileID: 100100000}
  m_GameObject: {fileID: 184272}
  m_LocalRotation: {x: 0, y: 0, z: 0, w: 1}
  m_LocalPosition: {x: 0, y: 1.29999995, z: 0}
  m_LocalScale: {x: 1, y: 1, z: 1}
  m_Children: []
  m_Father: {fileID: 484274}
  m_RootOrder: 0
--- !u!4 &484274
Transform:
  m_ObjectHideFlags: 1
  m_PrefabParentObject: {fileID: 0}
  m_PrefabInternal: {fileID: 100100000}
  m_GameObject: {fileID: 184274}
  m_LocalRotation: {x: 0, y: 0, z: 0, w: 1}
  m_LocalPosition: {x: 36.0654907, y: -.15366888, z: -6.82629395}
  m_LocalScale: {x: .800000012, y: .800000012, z: .800000012}
  m_Children:
  - {fileID: 484272}
  - {fileID: 484270}
  - {fileID: 484268}
  m_Father: {fileID: 0}
  m_RootOrder: 0
--- !u!23 &2384230
Renderer:
  m_ObjectHideFlags: 1
  m_PrefabParentObject: {fileID: 0}
  m_PrefabInternal: {fileID: 100100000}
  m_GameObject: {fileID: 184272}
  m_Enabled: 1
  m_CastShadows: 1
  m_ReceiveShadows: 1
  m_LightmapIndex: 255
  m_LightmapTilingOffset: {x: 1, y: 1, z: 0, w: 0}
  m_Materials:
  - {fileID: 10100, guid: 0000000000000000e000000000000000, type: 0}
  m_SubsetIndices: 
  m_StaticBatchRoot: {fileID: 0}
  m_UseLightProbes: 0
  m_LightProbeAnchor: {fileID: 0}
  m_ScaleInLightmap: 1
  m_SortingLayerID: 0
  m_SortingOrder: 0
--- !u!95 &9584230
Animator:
  serializedVersion: 3
  m_ObjectHideFlags: 1
  m_PrefabParentObject: {fileID: 0}
  m_PrefabInternal: {fileID: 100100000}
  m_GameObject: {fileID: 184274}
  m_Enabled: 1
  m_Avatar: {fileID: 9000000, guid: 8c20c380af461574f99424a22acd34c1, type: 3}
  m_Controller: {fileID: 9100000, guid: 29ed5a05bb8ad434a993329a6d8879a8, type: 2}
  m_CullingMode: 1
  m_UpdateMode: 0
  m_ApplyRootMotion: 1
  m_HasTransformHierarchy: 1
  m_AllowConstantClipSamplingOptimization: 1
--- !u!102 &10284230
TextMesh:
  serializedVersion: 3
  m_ObjectHideFlags: 1
  m_PrefabParentObject: {fileID: 0}
  m_PrefabInternal: {fileID: 100100000}
  m_GameObject: {fileID: 184272}
  m_Text: '------'
  m_OffsetZ: 0
  m_CharacterSize: .0149999997
  m_LineSpacing: 1
  m_Anchor: 4
  m_Alignment: 1
  m_TabSize: 3.75999999
  m_FontSize: 185
  m_FontStyle: 1
  m_RichText: 1
  m_Font: {fileID: 10102, guid: 0000000000000000e000000000000000, type: 0}
  m_Color:
    serializedVersion: 2
    rgba: 4294967295
--- !u!114 &11484230
MonoBehaviour:
  m_ObjectHideFlags: 1
  m_PrefabParentObject: {fileID: 0}
  m_PrefabInternal: {fileID: 100100000}
  m_GameObject: {fileID: 184274}
  m_Enabled: 1
  m_EditorHideFlags: 0
  m_Script: {fileID: 11500000, guid: d7dafa79a9f2cd34c844bf9b55c936a6, type: 3}
  m_Name: 
  m_EditorClassIdentifier: 
  Name: Archer
  Health: 75
  MaxHealth: 75
  Damage: 12
  DmgType: 0
  Range: 35
  Target: {fileID: 0}
  ProjectilePrefab: {fileID: 11418742, guid: d5552e4c700500f43ba3bb8626f13882, type: 2}
  AttackSpeed: 2
  Height: 10
  Reward: 15
--- !u!114 &11484232
MonoBehaviour:
  m_ObjectHideFlags: 1
  m_PrefabParentObject: {fileID: 0}
  m_PrefabInternal: {fileID: 100100000}
  m_GameObject: {fileID: 184274}
  m_Enabled: 1
  m_EditorHideFlags: 0
  m_Script: {fileID: 11500000, guid: 18eec1114064f5944b83d61ddbe5b02e, type: 3}
  m_Name: 
  m_EditorClassIdentifier: 
--- !u!137 &13784230
SkinnedMeshRenderer:
  m_ObjectHideFlags: 1
  m_PrefabParentObject: {fileID: 0}
  m_PrefabInternal: {fileID: 100100000}
  m_GameObject: {fileID: 184268}
  m_Enabled: 1
  m_CastShadows: 1
  m_ReceiveShadows: 1
  m_LightmapIndex: 255
  m_LightmapTilingOffset: {x: 1, y: 1, z: 0, w: 0}
  m_Materials:
  - {fileID: 2100000, guid: b4269d1b523905b4ebd7e3e557e5b5ef, type: 2}
  m_SubsetIndices: 
  m_StaticBatchRoot: {fileID: 0}
  m_UseLightProbes: 0
  m_LightProbeAnchor: {fileID: 0}
  m_ScaleInLightmap: 1
  m_SortingLayerID: 0
  m_SortingOrder: 0
  serializedVersion: 2
  m_Quality: 0
  m_UpdateWhenOffscreen: 0
  m_Mesh: {fileID: 4300000, guid: 8c20c380af461574f99424a22acd34c1, type: 3}
  m_Bones:
  - {fileID: 484230}
  - {fileID: 484232}
  - {fileID: 484234}
  - {fileID: 484242}
  - {fileID: 484236}
  - {fileID: 484238}
  - {fileID: 484240}
  - {fileID: 484244}
  - {fileID: 484264}
  - {fileID: 484246}
  - {fileID: 484248}
  - {fileID: 484250}
  - {fileID: 484258}
  - {fileID: 484252}
  - {fileID: 484254}
  - {fileID: 484256}
  - {fileID: 484260}
  - {fileID: 484262}
  - {fileID: 484266}
  - {fileID: 484270}
  m_BlendShapeWeights: []
  m_RootBone: {fileID: 484270}
  m_AABB:
    m_Center: {x: -.0817971826, y: -.0332493782, z: -.000782430172}
    m_Extent: {x: .636070311, y: .306622267, z: .5432567}
  m_DirtyAABB: 0
--- !u!195 &19584230
NavMeshAgent:
  m_ObjectHideFlags: 1
  m_PrefabParentObject: {fileID: 0}
  m_PrefabInternal: {fileID: 100100000}
  m_GameObject: {fileID: 184274}
  m_Enabled: 1
  m_Radius: 2
  m_Speed: 3
  m_Acceleration: 5
  avoidancePriority: 50
  m_AngularSpeed: 120
  m_StoppingDistance: .5
  m_AutoTraverseOffMeshLink: 1
  m_AutoBraking: 1
  m_AutoRepath: 1
  m_Height: 1.12
  m_BaseOffset: 0
  m_WalkableMask: 4294967295
  m_ObstacleAvoidanceType: 4
--- !u!1001 &100100000
Prefab:
  m_ObjectHideFlags: 1
  serializedVersion: 2
  m_Modification:
    m_TransformParent: {fileID: 0}
    m_Modifications: []
    m_RemovedComponents: []
  m_ParentPrefab: {fileID: 0}
  m_RootGameObject: {fileID: 184274}
  m_IsPrefabParent: 1
  m_IsExploded: 1
